{
  "gogood": {
    "main": {
      "regular": "primary.80"
    },
    "btn": {
      "regular": "secondary.110",
      "pressed": "secondary.100",
      "pressed_ghost": "secondary.20",
      "disabled": "gray.20"
    },
    "bullet": {
      "regular": "primary.80"
    },
    "text": {
      "regular": "gray.100",
      "subtitle": "gray.100"
    },
    "tabBottom": {
      "active": "singleton.black",
      "inactive": "gray.60"
    },
    "tab": {
      "activeText": "gray.100",
      "inactiveText": "gray.100",
      "underline": "primary.60"
    },
    "tag": {
      "locked": "gray.60",
      "unlocked": "gray.100",
      "lockedText": "singleton.white",
      "unlockedText": "singleton.white"
    },
    "planTag": {
      "locked": "gray.60",
      "unlocked": "gray.100",
      "lockedText": "singleton.white",
      "unlockedText": "singleton.white"
    },
    "tagStatus": {
      "regular_bg": "secondary.20",
      "regular_text": "secondary.110",
      "success_bg": "success.20",
      "success_text": "success.110",
      "alert_bg": "alert.20",
      "alert_text": "alert.110",
      "error_bg": "error.20",
      "error_text": "error.100"
    },
    "uploadCard": {
      "background": "primary.100"
    },
    "checkbox": {
      "checked": "gray.100"
    },
    "spinner": {
      "regular": "primary.80"
    },
    "textInput": {
      "outline": "primary.80"
    },
    "table": {
      "regular": "secondary.60",
      "header": "secondary.100",
      "child": "secondary.20",
      "even": "secondary.40",
      "odd": "secondary.20",
      "mobileEven": "secondary.40",
      "mobileOdd": "secondary.60"
    },
    "popover": {
      "regular": "secondary.100"
    },
    "searchInput": {
      "outline": "gray.100",
      "text": "gray.100"
    },
    "selectInput": {
      "pressed": "primary.20",
      "button_bg": "secondary.20",
      "button_outline": "secondary.110",
      "button_text": "secondary.110"
    },
    "filterTag": {
      "regular": "primary.110"
    },
    "radio": {
      "active": "gray.100"
    },
    "creditCard": {
      "active": "secondary.110",
      "inactive": "singleton.white",
      "selectedText": "singleton.white",
      "unselectedText": "secondary.110"
    },
    "planCard": {
      "regular": "primary.80"
    },
    "progress": {
      "regular": "primary.80"
    },
    "banner": {
      "train": "primary.110",
      "services": "comp2.110"
    },
    "rh": {
      "financials": "success.100",
      "financials_dark": "success.110",
      "checkins": "comp1.100",
      "checkins_dark": "comp1.110",
      "users": "secondary.100",
      "users_dark": "secondary.110",
      "gyms": "primary.80",
      "gyms_dark": "primary.100",
      "payments": "comp2.100",
      "payments_dark": "comp2.110",
      "content": "error.100",
      "content_dark": "error.110",
      "label": "secondary.100",
      "label_dark": "secondary.110"
    },
    "checkin": {
      "active_ticket": "secondary.110",
      "inactive_ticket": "gray.60",
      "active_ticket_bg": "secondary.20",
      "inactive_ticket_bg": "gray.3",
      "active_ticket_border": "singleton.transparent",
      "inactive_ticket_border": "gray.40"
    },
    "partner": {
      "info_icon": "secondary.80",
      "bg_recommendation": "secondary.20"
    }
  },
  "partners": {
    "main": {
      "regular": "primary.80"
    },
    "btn": {
      "regular": "comp1.110",
      "pressed": "comp1.80",
      "pressed_ghost": "comp1.20",
      "disabled": "gray.20"
    },
    "bullet": {
      "regular": "primary.80"
    },
    "text": {
      "regular": "gray.100",
      "subtitle": "gray.100"
    },
    "table": {
      "regular": "primary.80",
      "header": "primary.100",
      "child": "primary.20",
      "even": "primary.40",
      "odd": "primary.20",
      "mobileEven": "primary.40",
      "mobileOdd": "primary.60"
    },
    "popover": {
      "regular": "comp3.100"
    },
    "tabBottom": {
      "active": "singleton.black",
      "inactive": "gray.60"
    },
    "tab": {
      "activeText": "gray.100",
      "inactiveText": "gray.100",
      "underline": "primary.60"
    },
    "tag": {
      "locked": "gray.60",
      "unlocked": "gray.100",
      "lockedText": "singleton.white",
      "unlockedText": "singleton.white"
    },
    "planTag": {
      "locked": "gray.60",
      "unlocked": "gray.100",
      "lockedText": "singleton.white",
      "unlockedText": "singleton.white"
    },
    "tagStatus": {
      "regular_bg": "comp1.20",
      "regular_text": "comp1.110",
      "success_bg": "success.20",
      "success_text": "success.110",
      "alert_bg": "alert.20",
      "alert_text": "alert.110",
      "error_bg": "error.20",
      "error_text": "error.100"
    },
    "uploadCard": {
      "background": "primary.100"
    },
    "checkbox": {
      "checked": "gray.100"
    },
    "spinner": {
      "regular": "primary.80"
    },
    "textInput": {
      "outline": "primary.80"
    },
    "searchInput": {
      "outline": "gray.100",
      "text": "gray.100"
    },
    "selectInput": {
      "pressed": "gray.20"
    },
    "filterTag": {
      "regular": "primary.110"
    },
    "radio": {
      "active": "gray.100"
    },
    "creditCard": {
      "active": "gray.100",
      "inactive": "singleton.white",
      "selectedText": "singleton.white",
      "unselectedText": "gray.100"
    },
    "planCard": {
      "regular": "primary.80"
    },
    "progress": {
      "regular": "primary.80"
    },
    "banner": {
      "train": "primary.110",
      "services": "comp2.110"
    },
    "rh": {
      "financials": "success.100",
      "financials_dark": "success.110",
      "checkins": "comp1.100",
      "checkins_dark": "comp1.110",
      "users": "secondary.100",
      "users_dark": "secondary.110",
      "gyms": "primary.80",
      "gyms_dark": "primary.100",
      "payments": "comp2.100",
      "payments_dark": "comp2.110",
      "content": "error.100",
      "content_dark": "error.110",
      "label": "secondary.100",
      "label_dark": "secondary.110"
    },
    "checkin": {
      "active_ticket": "secondary.110",
      "inactive_ticket": "gray.60",
      "active_ticket_bg": "secondary.20",
      "inactive_ticket_bg": "gray.3",
      "active_ticket_border": "singleton.transparent",
      "inactive_ticket_border": "gray.40"
    }
  },
  "dasa": {
    "main": {
      "regular": "primary.80"
    },
    "btn": {
      "regular": "primary.60",
      "pressed_ghost": "primary.20",
      "disabled": "gray.40"
    },
    "bullet": {
      "regular": "primary.60"
    },
    "text": {
      "regular": "gray.100",
      "subtitle": "gray.100"
    },
    "table": {
      "regular": "primary.80",
      "header": "primary.100",
      "child": "primary.20",
      "even": "primary.40",
      "odd": "primary.20",
      "mobileEven": "primary.40",
      "mobileOdd": "primary.60"
    },
    "popover": {
      "regular": "primary.100"
    },
    "tabBottom": {
      "active": "primary.60",
      "inactive": "gray.60"
    },
    "tab": {
      "activeText": "primary.60",
      "inactiveText": "gray.110",
      "underline": "primary.60"
    },
    "tag": {
      "locked": "gray.80",
      "unlocked": "gray.100",
      "lockedText": "singleton.white",
      "unlockedText": "singleton.white"
    },
    "planTag": {
      "locked": "gray.80",
      "unlocked": "gray.100",
      "lockedText": "singleton.white",
      "unlockedText": "singleton.white"
    },
    "uploadCard": {
      "background": "primary.100"
    },
    "checkbox": {
      "checked": "primary.60"
    },
    "spinner": {
      "regular": "primary.80"
    },
    "textInput": {
      "outline": "primary.80"
    },
    "searchInput": {
      "outline": "gray.100",
      "text": "gray.100"
    },
    "selectInput": {
      "pressed": "primary.20"
    },
    "filterTag": {
      "regular": "primary.110"
    },
    "radio": {
      "active": "gray.100"
    },
    "creditCard": {
      "active": "gray.100",
      "inactive": "singleton.white",
      "selectedText": "singleton.white",
      "unselectedText": "gray.100"
    },
    "planCard": {
      "regular": "primary.80"
    },
    "progress": {
      "regular": "primary.100"
    },
    "banner": {
      "train": "comp2.110",
      "services": "comp4.110"
    },
    "rh": {
      "financials": "success.100",
      "financials_dark": "success.110",
      "checkins": "comp1.100",
      "checkins_dark": "comp1.110",
      "users": "secondary.100",
      "users_dark": "secondary.110",
      "gyms": "primary.60",
      "gyms_dark": "primary.10",
      "payments": "comp2.100",
      "payments_dark": "comp2.110",
      "content": "error.100",
      "content_dark": "error.110",
      "label": "secondary.100",
      "label_dark": "secondary.110"
    },
    "checkin": {
      "active_ticket": "secondary.110",
      "inactive_ticket": "gray.60",
      "active_ticket_bg": "secondary.20",
      "inactive_ticket_bg": "gray.3",
      "active_ticket_border": "singleton.transparent",
      "inactive_ticket_border": "gray.40"
    }
  },
  "sesi": {
    "main": {
      "regular": "purple.80"
    },
    "btn": {
      "regular": "purple.80",
      "pressed": "purple.100",
      "pressed_ghost": "purple.20",
      "disabled": "gray.20"
    },
    "bullet": {
      "regular": "purple.80"
    },
    "text": {
      "regular": "gray.100",
      "subtitle": "gray.60"
    },
    "table": {
      "regular": "purple.60",
      "header": "purple.100",
      "child": "purple.20",
      "even": "purple.40",
      "odd": "purple.20",
      "mobileEven": "purple.40",
      "mobileOdd": "purple.60"
    },
    "popover": {
      "regular": "secondary.100"
    },
    "tabBottom": {
      "active": "purple.80",
      "inactive": "gray.60"
    },
    "tab": {
      "activeText": "gray.100",
      "inactiveText": "gray.100",
      "underline": "purple.80"
    },
    "tag": {
      "locked": "purple.80",
      "unlocked": "purple.20",
      "lockedText": "purple.20",
      "unlockedText": "purple.80"
    },
    "planTag": {
      "locked": "purple.20",
      "unlocked": "purple.80",
      "lockedText": "purple.20",
      "unlockedText": "purple.80"
    },
    "tagStatus": {
      "regular_bg": "secondary.20",
      "regular_text": "secondary.110",
      "success_bg": "success.20",
      "success_text": "success.110",
      "alert_bg": "alert.20",
      "alert_text": "alert.110",
      "error_bg": "error.20",
      "error_text": "error.100"
    },
    "uploadCard": {
      "background": "purple.80"
    },
    "checkbox": {
      "checked": "success.100"
    },
    "spinner": {
      "regular": "purple.80"
    },
    "textInput": {
      "outline": "purple.80"
    },
    "searchInput": {
      "outline": "gray.100",
      "text": "gray.100"
    },
    "selectInput": {
      "pressed": "purple.20",
      "button_bg": "purple.20",
      "button_outline": "purple.100",
      "button_text": "purple.100"
    },
    "filterTag": {
      "regular": "purple.80"
    },
    "radio": {
      "active": "success.100"
    },
    "creditCard": {
      "active": "purple.80",
      "inactive": "singleton.white",
      "selectedText": "singleton.white",
      "unselectedText": "purple.80"
    },
    "planCard": {
      "regular": "purple.80"
    },
    "progress": {
      "regular": "purple.80"
    },
    "banner": {
      "train": "pink.80",
      "services": "purple.80"
    },
    "rh": {
      "financials": "success.100",
      "financials_dark": "success.110",
      "checkins": "comp1.100",
      "checkins_dark": "comp1.110",
      "users": "purple.100",
      "users_dark": "purple.110",
      "gyms": "purple.60",
      "gyms_dark": "purple.110",
      "payments": "comp2.100",
      "payments_dark": "comp2.110",
      "content": "error.100",
      "content_dark": "error.110",
      "label": "purple.100",
      "label_dark": "purple.110"
    },
    "checkin": {
      "active_ticket": "purple.60",
      "inactive_ticket": "gray.60",
      "active_ticket_bg": "purple.20",
      "inactive_ticket_bg": "gray.3",
      "active_ticket_border": "singleton.transparent",
      "inactive_ticket_border": "gray.40"
    },
    "partner": {
      "info_icon": "purple.80",
      "bg_recommendation": "purple.20"
    }
  }
}
